{
  "project_info": {
    "project_number": "487563456401",
    "project_id": "home-automation-a91a2",
    "storage_bucket": "home-automation-a91a2.appspot.com"
  },
  "client": [
    {
      "client_info": {
        "mobilesdk_app_id": "1:487563456401:android:e417e95335544e1a493430",
        "android_client_info": {
          "package_name": "com.dani.firebasetest"
        }
      },
      "oauth_client": [
        {
          "client_id": "487563456401-duf2vt57kut2kohqvpuprjs1ikimesam.apps.googleusercontent.com",
          "client_type": 3
        }
      ],
      "api_key": [
        {
          "current_key": "AIzaSyAoa-Nv8WYBg0QkuP1zE4lb41J8Ad1Z1eE"
        }
      ],
      "services": {
        "appinvite_service": {
          "other_platform_oauth_client": [
            {
              "client_id": "487563456401-duf2vt57kut2kohqvpuprjs1ikimesam.apps.googleusercontent.com",
              "client_type": 3
            }
          ]
        }
      }
    },
    {
      "client_info": {
        "mobilesdk_app_id": "1:487563456401:android:7038dcadc2fd2e85493430",
        "android_client_info": {
          "package_name": "com.example.myapplication2"
        }
      },
      "oauth_client": [
        {
          "client_id": "487563456401-duf2vt57kut2kohqvpuprjs1ikimesam.apps.googleusercontent.com",
          "client_type": 3
        }
      ],
      "api_key": [
        {
          "current_key": "AIzaSyAoa-Nv8WYBg0QkuP1zE4lb41J8Ad1Z1eE"
        }
      ],
      "services": {
        "appinvite_service": {
          "other_platform_oauth_client": [
            {
              "client_id": "487563456401-duf2vt57kut2kohqvpuprjs1ikimesam.apps.googleusercontent.com",
              "client_type": 3
            }
          ]
        }
      }
    }
  ],
  "configuration_version": "1"
}